Aula 2 - O Tidyverse
…
select

select

Utilizar starts_with(x), contains(x), matches(x), one_of(x), etc.

Possível colocar nomes, índices, e intervalos de variáveis com :.

Em ação

decisoes %>% 
  select(id_decisao, n_processo, municipio, juiz)

# A tibble: 11,731 × 4
   id_decisao n_processo                municipio           juiz                
   <chr>      <chr>                     <chr>               <chr>               
 1 11094999   0057003-20.2017.8.26.0000 Cosmópolis          Luiz Antonio Cardoso
 2 11093733   0052762-03.2017.8.26.0000 São Paulo           Luiz Antonio Cardoso
 3 11093677   0055169-79.2017.8.26.0000 Ribeirão Preto      Luiz Antonio Cardoso
 4 11093270   9000580-82.2017.8.26.0032 Araçatuba           Grassi Neto         
 5 11093374   0052938-79.2017.8.26.0000 São Paulo           Grassi Neto         
 6 11093320   9000723-79.2017.8.26.0482 Presidente Prudente Grassi Neto         
 7 11091506   0003276-86.2015.8.26.0075 Bertioga            Grassi Neto         
 8 11093326   9000298-11.2017.8.26.0625 Taubaté             Grassi Neto         
 9 11092475   0004653-39.2015.8.26.0028 Aparecida           Grassi Neto         
10 11093773   2221930-66.2017.8.26.0000 Jandira             Luiz Antonio Cardoso
# ℹ 11,721 more rows

Em ação

decisoes %>% 
  select(classe_assunto:id_decisao, juiz)

# A tibble: 11,731 × 4
   classe_assunto                                    n_processo id_decisao juiz 
   <chr>                                             <chr>      <chr>      <chr>
 1 Habeas Corpus / Homicídio Simples                 0057003-2… 11094999   Luiz…
 2 Habeas Corpus / Roubo                             0052762-0… 11093733   Luiz…
 3 Habeas Corpus / DIREITO PENAL                     0055169-7… 11093677   Luiz…
 4 Agravo de Execução Penal / Pena Privativa de Lib… 9000580-8… 11093270   Gras…
 5 Mandado de Segurança / Crimes do Sistema Naciona… 0052938-7… 11093374   Gras…
 6 Agravo de Execução Penal / Pena Privativa de Lib… 9000723-7… 11093320   Gras…
 7 Apelação / Tráfico de Drogas e Condutas Afins     0003276-8… 11091506   Gras…
 8 Agravo de Execução Penal / Livramento Condicional 9000298-1… 11093326   Gras…
 9 Apelação / Tráfico de Drogas e Condutas Afins     0004653-3… 11092475   Gras…
10 Habeas Corpus / Furto Qualificado                 2221930-6… 11093773   Luiz…
# ℹ 11,721 more rows

Em ação

decisoes %>% 
  select(id_decisao, starts_with('data_'))

# A tibble: 11,731 × 3
   id_decisao data_decisao data_registro
   <chr>      <chr>        <chr>        
 1 11094999   19/12/2017   19/12/2017   
 2 11093733   19/12/2017   19/12/2017   
 3 11093677   19/12/2017   19/12/2017   
 4 11093270   14/12/2017   19/12/2017   
 5 11093374   14/12/2017   19/12/2017   
 6 11093320   14/12/2017   19/12/2017   
 7 11091506   14/12/2017   19/12/2017   
 8 11093326   14/12/2017   19/12/2017   
 9 11092475   14/12/2017   19/12/2017   
10 11093773   19/12/2017   19/12/2017   
# ℹ 11,721 more rows

Operações

selecione as colunas que acabam com “cisao”.

decisoes %>% 
  select(ends_with("cisao"))

# A tibble: 11,731 × 3
   id_decisao data_decisao txt_decisao                                          
   <chr>      <chr>        <chr>                                                
 1 11094999   19/12/2017    <NA>                                                
 2 11093733   19/12/2017    <NA>                                                
 3 11093677   19/12/2017    <NA>                                                
 4 11093270   14/12/2017   "Execução Penal –  Comutação de Penas –  Decreto n. …
 5 11093374   14/12/2017   "Mandado de segurança – Impetração por agente despro…
 6 11093320   14/12/2017   "Execução Penal – Apuração de falta grave em procedi…
 7 11091506   14/12/2017   "Tráfico de entorpecentes – Agente que traz consigo …
 8 11093326   14/12/2017   "Execução Penal – Pedido de livramento condicional d…
 9 11092475   14/12/2017   "Tráfico de entorpecentes –  Agente que tem em depós…
10 11093773   19/12/2017    <NA>                                                
# ℹ 11,721 more rows

Operações

tire as colunas de texto = ‘txt_decisao’ e classe/assunto = ‘classe_assunto’.

Dica: veja os exemplos de ?select em Drop variables ...

decisoes %>% 
  select(-classe_assunto, -txt_decisao)

# A tibble: 11,731 × 7
   id_decisao n_processo       municipio camara data_decisao data_registro juiz 
   <chr>      <chr>            <chr>     <chr>  <chr>        <chr>         <chr>
 1 11094999   0057003-20.2017… Cosmópol… 3ª Câ… 19/12/2017   19/12/2017    Luiz…
 2 11093733   0052762-03.2017… São Paulo 3ª Câ… 19/12/2017   19/12/2017    Luiz…
 3 11093677   0055169-79.2017… Ribeirão… 3ª Câ… 19/12/2017   19/12/2017    Luiz…
 4 11093270   9000580-82.2017… Araçatuba 8ª Câ… 14/12/2017   19/12/2017    Gras…
 5 11093374   0052938-79.2017… São Paulo 8ª Câ… 14/12/2017   19/12/2017    Gras…
 6 11093320   9000723-79.2017… Presiden… 8ª Câ… 14/12/2017   19/12/2017    Gras…
 7 11091506   0003276-86.2015… Bertioga  8ª Câ… 14/12/2017   19/12/2017    Gras…
 8 11093326   9000298-11.2017… Taubaté   8ª Câ… 14/12/2017   19/12/2017    Gras…
 9 11092475   0004653-39.2015… Aparecida 8ª Câ… 14/12/2017   19/12/2017    Gras…
10 11093773   2221930-66.2017… Jandira   3ª Câ… 19/12/2017   19/12/2017    Luiz…
# ℹ 11,721 more rows
filter

filter

Use , ou & para “e” e | para “ou”.

Condições separadas por vírgulas é o mesmo que separar por &.

filter em ação

decisoes %>% 
  select(n_processo, id_decisao, municipio, juiz) %>% 
  filter(municipio == 'São Paulo')

# A tibble: 2,446 × 4
   n_processo                id_decisao municipio juiz                
   <chr>                     <chr>      <chr>     <chr>               
 1 0052762-03.2017.8.26.0000 11093733   São Paulo Luiz Antonio Cardoso
 2 0052938-79.2017.8.26.0000 11093374   São Paulo Grassi Neto         
 3 2214049-38.2017.8.26.0000 11093604   São Paulo Luiz Antonio Cardoso
 4 2227499-48.2017.8.26.0000 11093642   São Paulo Luiz Antonio Cardoso
 5 9002384-31.2017.8.26.0050 11093376   São Paulo Grassi Neto         
 6 0021158-39.2015.8.26.0050 11091508   São Paulo Grassi Neto         
 7 7005375-26.2015.8.26.0198 11091668   São Paulo Grassi Neto         
 8 9002039-65.2017.8.26.0050 11094451   São Paulo Grassi Neto         
 9 2203993-43.2017.8.26.0000 11094449   São Paulo Grassi Neto         
10 0099423-21.2016.8.26.0050 11091474   São Paulo Grassi Neto         
# ℹ 2,436 more rows

Dica: usar %in%

library(lubridate) # para trabalhar com as datas
#`day(dmy(data_decisao))` pega o dia da decisão. 

decisoes %>% 
  select(id_decisao, municipio, data_decisao, juiz) %>% 
  # municipio igual a campinas ou jaú, OU dia da decisão maior ou igual a 25
  filter(municipio %in% c('Campinas', 'Jaú') | day(dmy(data_decisao)) >= 25)

# A tibble: 3,352 × 4
   id_decisao municipio data_decisao juiz             
   <chr>      <chr>     <chr>        <chr>            
 1 11093272   Campinas  14/12/2017   Grassi Neto      
 2 11093359   Campinas  07/12/2017   Grassi Neto      
 3 11088333   Campinas  14/12/2017   Grassi Neto      
 4 11093018   Jaú       28/11/2017   Ivan Sartori     
 5 11089105   Jaú       14/12/2017   Ricardo Tucunduva
 6 11089111   Campinas  14/12/2017   Ricardo Tucunduva
 7 11091386   Santos    27/11/2017   Ivo de Almeida   
 8 11091385   Araçatuba 27/11/2017   Ivo de Almeida   
 9 11091384   São Paulo 27/11/2017   Ivo de Almeida   
10 11088180   Campinas  14/12/2017   Walter da Silva  
# ℹ 3,342 more rows
…
Obs

A função str_detect() retorna TRUE se um elemento do vetor de textos é compatível com uma expressão regular. Estudaremos o pacote stringr e as funções str_* em outra aula.

Filtrando

filtre apenas casos em que id_decisao não é NA

decisoes %>% 
  filter(is.na(id_decisao))

# A tibble: 65 × 9
   id_decisao n_processo classe_assunto municipio camara data_decisao
   <chr>      <chr>      <chr>          <chr>     <chr>  <chr>       
 1 <NA>       <NA>       <NA>           <NA>      <NA>   <NA>        
 2 <NA>       <NA>       <NA>           <NA>      <NA>   <NA>        
 3 <NA>       <NA>       <NA>           <NA>      <NA>   <NA>        
 4 <NA>       <NA>       <NA>           <NA>      <NA>   <NA>        
 5 <NA>       <NA>       <NA>           <NA>      <NA>   <NA>        
 6 <NA>       <NA>       <NA>           <NA>      <NA>   <NA>        
 7 <NA>       <NA>       <NA>           <NA>      <NA>   <NA>        
 8 <NA>       <NA>       <NA>           <NA>      <NA>   <NA>        
 9 <NA>       <NA>       <NA>           <NA>      <NA>   <NA>        
10 <NA>       <NA>       <NA>           <NA>      <NA>   <NA>        
# ℹ 55 more rows
# ℹ 3 more variables: data_registro <chr>, juiz <chr>, txt_decisao <chr>

Filtrando

filtre todas as decisões de 2018.

– Dica: função lubridate::year()

decisoes %>% 
  filter(year(dmy(data_decisao)) == 2018)

# A tibble: 314 × 9
   id_decisao n_processo            classe_assunto municipio camara data_decisao
   <chr>      <chr>                 <chr>          <chr>     <chr>  <chr>       
 1 11107242   0009617-63.2016.8.26… Apelação / Ro… São Paulo 2ª Câ… 15/01/2018  
 2 11107425   2227593-93.2017.8.26… Habeas Corpus… Iepê      2ª Câ… 15/01/2018  
 3 11107492   0076977-24.2016.8.26… Embargos de D… São Paulo 2ª Câ… 15/01/2018  
 4 11107361   0012191-36.2017.8.26… Agravo de Exe… Campinas  2ª Câ… 15/01/2018  
 5 11107383   2218460-27.2017.8.26… Habeas Corpus… Sorocaba  2ª Câ… 15/01/2018  
 6 11107331   0006928-63.2017.8.26… Agravo de Exe… Sorocaba  2ª Câ… 15/01/2018  
 7 11107651   0000297-54.2017.8.26… Apelação / Tr… Junqueir… 2ª Câ… 15/01/2018  
 8 11107485   2225548-19.2017.8.26… Habeas Corpus… Nazaré P… 2ª Câ… 15/01/2018  
 9 11107335   0006934-70.2017.8.26… Agravo de Exe… Sorocaba  2ª Câ… 15/01/2018  
10 11107340   0006682-67.2017.8.26… Agravo de Exe… Sorocaba  2ª Câ… 15/01/2018  
# ℹ 304 more rows
# ℹ 3 more variables: data_registro <chr>, juiz <chr>, txt_decisao <chr>
mutate

mutate

Aceita várias novas colunas iterativamente.

Novas variáveis devem ter o mesmo length que o nrow do bd original ou 1.

mutate em ação

decisoes %>% 
  select(n_processo, data_decisao, data_registro) %>% 
  mutate(tempo = dmy(data_registro) - dmy(data_decisao))

# A tibble: 11,731 × 4
   n_processo                data_decisao data_registro tempo 
   <chr>                     <chr>        <chr>         <drtn>
 1 0057003-20.2017.8.26.0000 19/12/2017   19/12/2017    0 days
 2 0052762-03.2017.8.26.0000 19/12/2017   19/12/2017    0 days
 3 0055169-79.2017.8.26.0000 19/12/2017   19/12/2017    0 days
 4 9000580-82.2017.8.26.0032 14/12/2017   19/12/2017    5 days
 5 0052938-79.2017.8.26.0000 14/12/2017   19/12/2017    5 days
 6 9000723-79.2017.8.26.0482 14/12/2017   19/12/2017    5 days
 7 0003276-86.2015.8.26.0075 14/12/2017   19/12/2017    5 days
 8 9000298-11.2017.8.26.0625 14/12/2017   19/12/2017    5 days
 9 0004653-39.2015.8.26.0028 14/12/2017   19/12/2017    5 days
10 2221930-66.2017.8.26.0000 19/12/2017   19/12/2017    0 days
# ℹ 11,721 more rows

usando

Crie uma coluna binária drogas que vale TRUE se no texto da decisão algo é falado de drogas e FALSE caso contrário. – Dica: str_detect

Obs.: Considere tanto a palavra ‘droga’ como seus sinônimos e tipos, ou algum exemplo de droga e retire os casos em que txt_decisao é vazio

decisoes %>% 
  filter(!is.na(txt_decisao)) %>% 
  mutate(txt_decisao = tolower(txt_decisao),
         droga = str_detect(txt_decisao,
    "droga|entorpecente|psicotr[óo]pico|maconha|haxixe|coca[íi]na")) %>%
  dplyr::select(n_processo,droga) 

# A tibble: 6,933 × 2
   n_processo                droga
   <chr>                     <lgl>
 1 9000580-82.2017.8.26.0032 FALSE
 2 0052938-79.2017.8.26.0000 FALSE
 3 9000723-79.2017.8.26.0482 FALSE
 4 0003276-86.2015.8.26.0075 TRUE 
 5 9000298-11.2017.8.26.0625 TRUE 
 6 0004653-39.2015.8.26.0028 TRUE 
 7 9000788-34.2017.8.26.0269 FALSE
 8 9000673-53.2017.8.26.0482 FALSE
 9 7005620-87.2017.8.26.0482 FALSE
10 7001988-32.2017.8.26.0198 FALSE
# ℹ 6,923 more rows
…
Resultado

# A tibble: 315 × 5
   municipio               n media_anos min_anos max_anos
   <chr>               <int>      <dbl>    <dbl>    <dbl>
 1 Adamantina             17      0.765        0        5
 2 Aguaí                  19      1.16         0        2
 3 Agudos                  8      3.25         0        6
 4 Altinópolis             7      0.857        0        2
 5 Americana              56      1.41         0        9
 6 Amparo                  9      2.11         0        7
 7 Américo Brasiliense     9      1.56         0        3
 8 Andradina              41      0.707        0        5
 9 Angatuba                4      0.5          0        2
10 Aparecida              20      1.9          0        5
# ℹ 305 more rows

usando count()

A função count(), simplifica um group_by %>% summarise %>% ungroup:

decisoes %>% 
  count(juiz, sort = TRUE) %>% 
  mutate(prop = n / sum(n), 
         prop = scales::percent(prop))

# A tibble: 100 × 3
   juiz                          n prop   
   <chr>                     <int> <chr>  
 1 Gilberto Ferreira da Cruz   237 2.0203%
 2 Francisco Orlando           226 1.9265%
 3 Diniz Fernando              198 1.6878%
 4 Walter da Silva             183 1.5600%
 5 De Paula Santos             182 1.5514%
 6 Machado de Andrade          182 1.5514%
 7 Newton Neves                180 1.5344%
 8 Leme Garcia                 179 1.5259%
 9 Grassi Neto                 177 1.5088%
10 Figueiredo Gonçalves        176 1.5003%
# ℹ 90 more rows

+ fácil ainda

mas sem formato %

decisoes %>% 
  count(juiz, sort = TRUE) %>% 
  mutate(prop = prop.table(n))

# A tibble: 100 × 3
   juiz                          n   prop
   <chr>                     <int>  <dbl>
 1 Gilberto Ferreira da Cruz   237 0.0202
 2 Francisco Orlando           226 0.0193
 3 Diniz Fernando              198 0.0169
 4 Walter da Silva             183 0.0156
 5 De Paula Santos             182 0.0155
 6 Machado de Andrade          182 0.0155
 7 Newton Neves                180 0.0153
 8 Leme Garcia                 179 0.0153
 9 Grassi Neto                 177 0.0151
10 Figueiredo Gonçalves        176 0.0150
# ℹ 90 more rows
…
